{
    "AppSyncApiName": "api",
    "DynamoDBBillingMode": "PAY_PER_REQUEST",
    "DynamoDBEnableServerSideEncryption": "false",
    "AuthCognitoUserPoolId": {
        "Fn::GetAtt": [
            "authauthaf14badd",
            "Outputs.UserPoolId"
        ]
    }
}