{
	"function": {
		"authaf14baddCustomMessage": {
			"service": "Lambda",
			"providerPlugin": "awscloudformation",
			"build": true
		}
	},
	"auth": {
		"authaf14badd": {
			"service": "Cognito",
			"providerPlugin": "awscloudformation",
			"dependsOn": [
				{
					"category": "function",
					"resourceName": "authaf14baddCustomMessage",
					"triggerProvider": "Cognito",
					"attributes": [
						"Arn",
						"Name"
					]
				}
			]
		}
	},
	"analytics": {},
	"storage": {
		"reacttestupload": {
			"service": "S3",
			"providerPlugin": "awscloudformation"
		}
	},
	"api": {
		"api": {
			"service": "AppSync",
			"providerPlugin": "awscloudformation",
			"output": {
				"authConfig": {
					"additionalAuthenticationProviders": [],
					"defaultAuthentication": {
						"authenticationType": "AMAZON_COGNITO_USER_POOLS",
						"userPoolConfig": {
							"userPoolId": "authauthaf14badd"
						}
					}
				}
			}
		}
	},
	"hosting": {
		"S3AndCloudFront": {
			"service": "S3AndCloudFront",
			"providerPlugin": "awscloudformation"
		}
	}
}