{
    "projectName": "auth",
    "version": "2.0",
    "frontend": "javascript",
    "javascript": {
        "framework": "react",
        "config": {
            "SourceDir": "src",
            "DistributionDir": "build",
            "BuildCommand": "npm run-script build",
            "StartCommand": "npm run-script start"
        }
    },
    "providers": [
        "awscloudformation"
    ]
}